{
  "storage": {
    "cleanup_db_every_seconds": 10
  },
  "server": {
    "grpc:protobuf": {
      "host:port": "localhost:50051"
    },
    "gorpc:gob": {
      "host:port": "localhost:50052"
    },
    "http:json": {
      "host:port": ":50053"
    }
  },
  "snapshots": {
    "file": "snapshot.db",
    "make_every_seconds": 10
  },
  "loaded": true
}